<svg height="32" version="1.0" width="32" xmlns="http://www.w3.org/2000/svg">
    <path d="M5 4h8l3 3h11c1.108 0 2 .892 2 2v20c0 1.108-.892 2-2 2H5c-1.108 0-2-.892-2-2V6c0-1.108.892-2 2-2z" fill="#48b9c7"/>
    <path d="M5 4c-1.108 0-2 .892-2 2v23c0 1.108.892 2 2 2h22c1.108 0 2-.892 2-2V9c0-1.108-.892-2-2-2H16l-3-3zm0 5h22c.554 0 1 .446 1 1v18c0 .554-.446 1-1 1H5c-.554 0-1-.446-1-1V10c0-.554.446-1 1-1z" fill-opacity=".25"/>
    <path d="M5 8c-1.108 0-2 .892-2 2v19c0 1.108.892 2 2 2h22c1.108 0 2-.892 2-2V10c0-1.108-.892-2-2-2zm0 1h22c.554 0 1 .446 1 1v18c0 .554-.446 1-1 1H5c-.554 0-1-.446-1-1V10c0-.554.446-1 1-1z" fill-opacity=".25"/>
      <g transform="scale(4. 4.) translate(2 2.65)" id="g8765">
      	    <path d="M4.233 4.233H0V0h4.233z" fill="none"/>
    <g fill="#fefeff">
        <path d="M1.058.263a.798.798 0 0 0-.793.795v2.116c0 .435.358.794.793.794h2.117c.436 0 .793-.36.793-.794V1.058a.798.798 0 0 0-.793-.795zm0 .53h2.117c.152 0 .264.114.264.265v2.116a.259.259 0 0 1-.264.265H1.058a.259.259 0 0 1-.263-.265V1.058c0-.15.112-.265.263-.265z"/>
        <path d="M1.587 1.058v1.211l1.192.688.264-.46-.926-.534v-.905zM1.323-.001H2.91v.265H1.323zm0 3.969H2.91v.265H1.323z"/>
    </g>

      </g>
</svg>
