<svg height="48" version="1.0" width="48" xmlns="http://www.w3.org/2000/svg">
    <path d="M8 5h12l4 4h16c2.216 0 4 1.784 4 4v29c0 2.216-1.784 4-4 4H8c-2.216 0-4-1.784-4-4V9c0-2.216 1.784-4 4-4z" fill="#48b9c7"/>
    <path d="M8 5C5.784 5 4 6.784 4 9v33c0 2.216 1.784 4 4 4h32c2.216 0 4-1.784 4-4V13c0-2.216-1.784-4-4-4H24l-4-4zm0 7h32c1.662 0 3 1.338 3 3v25c0 1.662-1.338 3-3 3H8c-1.662 0-3-1.338-3-3V15c0-1.662 1.338-3 3-3z" fill-opacity=".25"/>
    <path d="M8 11c-2.216 0-4 1.784-4 4v27c0 2.216 1.784 4 4 4h32c2.216 0 4-1.784 4-4V15c0-2.216-1.784-4-4-4zm0 1h32c1.662 0 3 1.338 3 3v25c0 1.662-1.338 3-3 3H8c-1.662 0-3-1.338-3-3V15c0-1.662 1.338-3 3-3z" fill-opacity=".25"/>
        <g transform="scale(6 6) translate(2 2.5)" id="g8765">
        	    <path d="M0 0h4.233v4.233H0z" fill="none"/>
    <path d="M1.852.265a.53.53 0 0 0-.53.53v1.637a.775.775 0 0 0-.264-.05.794.794 0 1 0 .794.794V1.324h1.587v1.108a.775.775 0 0 0-.264-.05.794.794 0 1 0 .794.794V.795a.53.53 0 0 0-.53-.53z" fill="#fefeff"/>

      </g>
</svg>
