<svg height="64" version="1.0" width="64" xmlns="http://www.w3.org/2000/svg">
    <path d="M9 7h18l5 5h23c2.216 0 4 1.784 4 4v41c0 2.216-1.784 4-4 4H9c-2.216 0-4-1.784-4-4V11c0-2.216 1.784-4 4-4z" fill="#48b9c7"/>
    <path d="M9 7c-2.216 0-4 1.784-4 4v46c0 2.216 1.784 4 4 4h46c2.216 0 4-1.784 4-4V16c0-2.216-1.784-4-4-4H32l-5-5zm0 8h46c1.662 0 3 1.338 3 3v37c0 1.662-1.338 3-3 3H9c-1.662 0-3-1.338-3-3V18c0-1.662 1.338-3 3-3z" fill-opacity=".25"/>
    <path d="M9 14c-2.216 0-4 1.784-4 4v39c0 2.216 1.784 4 4 4h46c2.216 0 4-1.784 4-4V18c0-2.216-1.784-4-4-4zm0 1h46c1.662 0 3 1.338 3 3v37c0 1.662-1.338 3-3 3H9c-1.662 0-3-1.338-3-3V18c0-1.662 1.338-3 3-3z" fill-opacity=".25"/>
      <g transform="scale(7 7) translate(2.5 3.1)" id="g8765">
      	    <path d="M0 0h4.233v4.233H0z" fill="none"/>
    <g fill="#fefeff">
        <path d="M1.058.53a.797.797 0 0 0-.793.793v1.588c0 .436.357.793.793.793h2.117a.797.797 0 0 0 .793-.793V1.323a.797.797 0 0 0-.793-.792zm0 .53h2.117c.151 0 .265.112.265.263v1.588a.259.259 0 0 1-.265.264H1.058a.257.257 0 0 1-.264-.264V1.323c0-.15.112-.263.264-.263z"/>
        <path d="M1.058 1.324v1.058l.397-.397.397.397.661-.661.662.661V1.324z" opacity=".5"/>
        <path d="M2.117 1.853l1.058 1.058H1.058z"/>
    </g>

      </g>
</svg>
