<svg height="64" version="1.0" width="64" xmlns="http://www.w3.org/2000/svg">
    <path d="M9 7h18l5 5h23c2.216 0 4 1.784 4 4v41c0 2.216-1.784 4-4 4H9c-2.216 0-4-1.784-4-4V11c0-2.216 1.784-4 4-4z" fill="#48b9c7"/>
    <path d="M9 7c-2.216 0-4 1.784-4 4v46c0 2.216 1.784 4 4 4h46c2.216 0 4-1.784 4-4V16c0-2.216-1.784-4-4-4H32l-5-5zm0 8h46c1.662 0 3 1.338 3 3v37c0 1.662-1.338 3-3 3H9c-1.662 0-3-1.338-3-3V18c0-1.662 1.338-3 3-3z" fill-opacity=".25"/>
    <path d="M9 14c-2.216 0-4 1.784-4 4v39c0 2.216 1.784 4 4 4h46c2.216 0 4-1.784 4-4V18c0-2.216-1.784-4-4-4zm0 1h46c1.662 0 3 1.338 3 3v37c0 1.662-1.338 3-3 3H9c-1.662 0-3-1.338-3-3V18c0-1.662 1.338-3 3-3z" fill-opacity=".25"/>
      <g transform="scale(7 7) translate(2.5 3.1)" id="g8765">
      	    <path d="M0 0h4.233v4.233H0z" fill="none"/>
    <path d="M2.044.267a1.852 1.852 0 1 0 .124 0zm.073.791c.584 0 1.058.474 1.058 1.059v.132a.397.397 0 0 1-.7.255.526.526 0 0 1-.887-.387.53.53 0 1 1 1.058 0v.132a.132.132 0 0 0 .264 0v-.132a.794.794 0 1 0-.793.793h.661s.132 0 .132.133c-.008.132-.132.132-.132.132h-.661a1.058 1.058 0 1 1 0-2.117zm0 .794a.265.265 0 1 0 0 .53.265.265 0 0 0 0-.53z" fill="#fefeff"/>

      </g>
</svg>
