<svg height="64" version="1.0" width="64" xmlns="http://www.w3.org/2000/svg">
    <path d="M9 7h18l5 5h23c2.216 0 4 1.784 4 4v41c0 2.216-1.784 4-4 4H9c-2.216 0-4-1.784-4-4V11c0-2.216 1.784-4 4-4z" fill="#48b9c7"/>
    <path d="M9 7c-2.216 0-4 1.784-4 4v46c0 2.216 1.784 4 4 4h46c2.216 0 4-1.784 4-4V16c0-2.216-1.784-4-4-4H32l-5-5zm0 8h46c1.662 0 3 1.338 3 3v37c0 1.662-1.338 3-3 3H9c-1.662 0-3-1.338-3-3V18c0-1.662 1.338-3 3-3z" fill-opacity=".25"/>
    <path d="M9 14c-2.216 0-4 1.784-4 4v39c0 2.216 1.784 4 4 4h46c2.216 0 4-1.784 4-4V18c0-2.216-1.784-4-4-4zm0 1h46c1.662 0 3 1.338 3 3v37c0 1.662-1.338 3-3 3H9c-1.662 0-3-1.338-3-3V18c0-1.662 1.338-3 3-3z" fill-opacity=".25"/>
      <g transform="scale(7 7) translate(2.5 3.1)" id="g8765">
      	    <path d="M0 0h4.233v4.233H0z" fill="none"/>
    <g fill="#fefeff" transform="translate(-73.184 -102.678)">
        <rect height="1.058" ry=".066" width="1.058" x="73.978" y="103.473"/>
        <rect height="1.058" ry=".066" width="1.058" x="75.565" y="103.473"/>
        <rect height="1.058" ry=".066" width="1.058" x="73.978" y="105.061"/>
        <rect height="1.058" ry=".066" width="1.058" x="75.565" y="105.061"/>
    </g>

      </g>
</svg>
