<svg height="32" version="1.0" width="32" xmlns="http://www.w3.org/2000/svg">
    <path d="M5 4h8l3 3h11c1.108 0 2 .892 2 2v20c0 1.108-.892 2-2 2H5c-1.108 0-2-.892-2-2V6c0-1.108.892-2 2-2z" fill="#48b9c7"/>
    <path d="M5 4c-1.108 0-2 .892-2 2v23c0 1.108.892 2 2 2h22c1.108 0 2-.892 2-2V9c0-1.108-.892-2-2-2H16l-3-3zm0 5h22c.554 0 1 .446 1 1v18c0 .554-.446 1-1 1H5c-.554 0-1-.446-1-1V10c0-.554.446-1 1-1z" fill-opacity=".25"/>
    <path d="M5 8c-1.108 0-2 .892-2 2v19c0 1.108.892 2 2 2h22c1.108 0 2-.892 2-2V10c0-1.108-.892-2-2-2zm0 1h22c.554 0 1 .446 1 1v18c0 .554-.446 1-1 1H5c-.554 0-1-.446-1-1V10c0-.554.446-1 1-1z" fill-opacity=".25"/>
      <g transform="scale(4. 4.) translate(2 2.65)" id="g8765">
      	    <path d="M1.323.265L.265.926l.793.53L2.117.793zm.794.529l1.058.661.794-.529L2.91.265zm1.058.661l-1.058.662.793.529 1.059-.662zm-1.058.662l-1.059-.662-.793.53 1.058.66zm0 .317l-.79.527-.269-.169v.278l1.06.635 1.057-.633v-.279l-.27.168z" fill="#fefeff"/>
    <path d="M0 0v4.233h4.233V0z" fill="none"/>

      </g>
</svg>
