<svg height="32" version="1.0" width="32" xmlns="http://www.w3.org/2000/svg">
    <path d="M5 4h8l3 3h11c1.108 0 2 .892 2 2v20c0 1.108-.892 2-2 2H5c-1.108 0-2-.892-2-2V6c0-1.108.892-2 2-2z" fill="#48b9c7"/>
    <path d="M5 4c-1.108 0-2 .892-2 2v23c0 1.108.892 2 2 2h22c1.108 0 2-.892 2-2V9c0-1.108-.892-2-2-2H16l-3-3zm0 5h22c.554 0 1 .446 1 1v18c0 .554-.446 1-1 1H5c-.554 0-1-.446-1-1V10c0-.554.446-1 1-1z" fill-opacity=".25"/>
    <path d="M5 8c-1.108 0-2 .892-2 2v19c0 1.108.892 2 2 2h22c1.108 0 2-.892 2-2V10c0-1.108-.892-2-2-2zm0 1h22c.554 0 1 .446 1 1v18c0 .554-.446 1-1 1H5c-.554 0-1-.446-1-1V10c0-.554.446-1 1-1z" fill-opacity=".25"/>
      <g transform="scale(4. 4.) translate(2 2.65)" id="g8765">
      	    <path d="M0 0h4.233v4.233H0z" fill="none"/>
    <path d="M1.852.265a.53.53 0 0 0-.53.53v1.637a.775.775 0 0 0-.264-.05.794.794 0 1 0 .794.794V1.324h1.587v1.108a.775.775 0 0 0-.264-.05.794.794 0 1 0 .794.794V.795a.53.53 0 0 0-.53-.53z" fill="#fefeff"/>

      </g>
</svg>
