<svg height="48" version="1.0" width="48" xmlns="http://www.w3.org/2000/svg">
    <path d="M8 5h12l4 4h16c2.216 0 4 1.784 4 4v29c0 2.216-1.784 4-4 4H8c-2.216 0-4-1.784-4-4V9c0-2.216 1.784-4 4-4z" fill="#48b9c7"/>
    <path d="M8 5C5.784 5 4 6.784 4 9v33c0 2.216 1.784 4 4 4h32c2.216 0 4-1.784 4-4V13c0-2.216-1.784-4-4-4H24l-4-4zm0 7h32c1.662 0 3 1.338 3 3v25c0 1.662-1.338 3-3 3H8c-1.662 0-3-1.338-3-3V15c0-1.662 1.338-3 3-3z" fill-opacity=".25"/>
    <path d="M8 11c-2.216 0-4 1.784-4 4v27c0 2.216 1.784 4 4 4h32c2.216 0 4-1.784 4-4V15c0-2.216-1.784-4-4-4zm0 1h32c1.662 0 3 1.338 3 3v25c0 1.662-1.338 3-3 3H8c-1.662 0-3-1.338-3-3V15c0-1.662 1.338-3 3-3z" fill-opacity=".25"/>
        <g transform="scale(6 6) translate(2 2.5)" id="g8765">
        	    <filter id="a" color-interpolation-filters="sRGB">
        <feBlend in2="BackgroundImage" mode="darken"/>
    </filter>
    <g filter="url(#a)" transform="translate(-144.072 104.726) scale(.26458)">
        <path d="M545-395.003h16v16h-16z" fill="none"/>
        <path d="M552.526-392.815c-2.071 0-3.835 1.268-4.594 3.063a3.981 3.981 0 0 0-3.406 3.937 4 4 0 0 0 4 4h1a352.04 352.04 0 0 1 6.166 0h1.334a3.5 3.5 0 0 0 3.5-3.5 3.49 3.49 0 0 0-3.094-3.469 5.011 5.011 0 0 0-4.906-4.031z" fill="#fefeff"/>
    </g>

      </g>
</svg>
