<svg height="48" version="1.0" width="48" xmlns="http://www.w3.org/2000/svg">
    <path d="M8 5h12l4 4h16c2.216 0 4 1.784 4 4v29c0 2.216-1.784 4-4 4H8c-2.216 0-4-1.784-4-4V9c0-2.216 1.784-4 4-4z" fill="#48b9c7"/>
    <path d="M8 5C5.784 5 4 6.784 4 9v33c0 2.216 1.784 4 4 4h32c2.216 0 4-1.784 4-4V13c0-2.216-1.784-4-4-4H24l-4-4zm0 7h32c1.662 0 3 1.338 3 3v25c0 1.662-1.338 3-3 3H8c-1.662 0-3-1.338-3-3V15c0-1.662 1.338-3 3-3z" fill-opacity=".25"/>
    <path d="M8 11c-2.216 0-4 1.784-4 4v27c0 2.216 1.784 4 4 4h32c2.216 0 4-1.784 4-4V15c0-2.216-1.784-4-4-4zm0 1h32c1.662 0 3 1.338 3 3v25c0 1.662-1.338 3-3 3H8c-1.662 0-3-1.338-3-3V15c0-1.662 1.338-3 3-3z" fill-opacity=".25"/>
        <g transform="scale(6 6) translate(2 2.5)" id="g8765">
        	    <path d="M4.233 0H0v4.233h4.233z" fill="none"/>
    <path d="M3.704.265c.147 0 .265.118.265.265v.53a.264.264 0 0 1-.265.264H.53a.264.264 0 0 1-.264-.265V.53C.266.383.384.265.53.265zM3.44.53a.264.264 0 1 0 0 .53.264.264 0 1 0 0-.53zm.264 1.025c.147 0 .265.118.265.265v.562a.264.264 0 0 1-.265.265H.53a.264.264 0 0 1-.264-.265V1.82c0-.147.118-.265.264-.265zm-.264.298a.264.264 0 1 0 0 .53.264.264 0 1 0 0-.53zm.264 1.058c.147 0 .265.118.265.265v.529a.264.264 0 0 1-.265.265H.53a.264.264 0 0 1-.264-.265v-.53c0-.146.118-.264.264-.264zm-.264.265a.265.265 0 0 0-.265.264.265.265 0 0 0 .265.265.265.265 0 0 0 .264-.265.265.265 0 0 0-.264-.264z" fill="#fefeff"/>

      </g>
</svg>
