<svg height="64" version="1.0" width="64" xmlns="http://www.w3.org/2000/svg">
    <path d="M9 7h18l5 5h23c2.216 0 4 1.784 4 4v41c0 2.216-1.784 4-4 4H9c-2.216 0-4-1.784-4-4V11c0-2.216 1.784-4 4-4z" fill="#48b9c7"/>
    <path d="M9 7c-2.216 0-4 1.784-4 4v46c0 2.216 1.784 4 4 4h46c2.216 0 4-1.784 4-4V16c0-2.216-1.784-4-4-4H32l-5-5zm0 8h46c1.662 0 3 1.338 3 3v37c0 1.662-1.338 3-3 3H9c-1.662 0-3-1.338-3-3V18c0-1.662 1.338-3 3-3z" fill-opacity=".25"/>
    <path d="M9 14c-2.216 0-4 1.784-4 4v39c0 2.216 1.784 4 4 4h46c2.216 0 4-1.784 4-4V18c0-2.216-1.784-4-4-4zm0 1h46c1.662 0 3 1.338 3 3v37c0 1.662-1.338 3-3 3H9c-1.662 0-3-1.338-3-3V18c0-1.662 1.338-3 3-3z" fill-opacity=".25"/>
      <g transform="scale(7 7) translate(2.5 3.1)" id="g8765">
      	    <path d="M2.117.265C1.531.265 1.06.747 1.06 1.34v.513H.53V3.97h3.176V1.853h-.53V1.34c0-.592-.471-1.075-1.058-1.075zm0 .53c.294 0 .53.236.53.529v.529H1.588v-.53c0-.292.236-.528.53-.528z" fill="#fefeff"/>
    <path d="M0 4.233V0h4.233v4.233z" fill="none"/>

      </g>
</svg>
