<svg height="64" version="1.0" width="64" xmlns="http://www.w3.org/2000/svg">
    <path d="M9 7h18l5 5h23c2.216 0 4 1.784 4 4v41c0 2.216-1.784 4-4 4H9c-2.216 0-4-1.784-4-4V11c0-2.216 1.784-4 4-4z" fill="#48b9c7"/>
    <path d="M9 7c-2.216 0-4 1.784-4 4v46c0 2.216 1.784 4 4 4h46c2.216 0 4-1.784 4-4V16c0-2.216-1.784-4-4-4H32l-5-5zm0 8h46c1.662 0 3 1.338 3 3v37c0 1.662-1.338 3-3 3H9c-1.662 0-3-1.338-3-3V18c0-1.662 1.338-3 3-3z" fill-opacity=".25"/>
    <path d="M9 14c-2.216 0-4 1.784-4 4v39c0 2.216 1.784 4 4 4h46c2.216 0 4-1.784 4-4V18c0-2.216-1.784-4-4-4zm0 1h46c1.662 0 3 1.338 3 3v37c0 1.662-1.338 3-3 3H9c-1.662 0-3-1.338-3-3V18c0-1.662 1.338-3 3-3z" fill-opacity=".25"/>
      <g transform="scale(7 7) translate(2.5 3.1)" id="g8765">
      	    <path d="M0 0h4.233v4.233H0z" fill="none"/>
    <g fill="#fefeff">
        <path d="M.53 1.058a.528.528 0 0 0-.53.53v2.116c0 .293.236.53.53.53h1.322v-.265h.265v-.265h-.265V3.44h.265v-.265h-.265V2.91h.265L.529 2.117v-.53l1.588.794 1.587-.794v.53l-1.587.793v.265h.264v.265h-.264v.264h.264v.265h-.264v.264h1.587c.293 0 .53-.236.53-.529V1.587a.528.528 0 0 0-.53-.529zm.528 1.587l.331.169-.86.89v-.53zm2.117 0l.53.529v.53l-.86-.89z"/>
        <path d="M.53.53a.528.528 0 0 0-.53.528v.265c0-.293.236-.53.53-.53h3.174a.53.53 0 0 1 .53.53v-.265a.528.528 0 0 0-.53-.529z" opacity=".5"/>
        <path d="M.53 0A.528.528 0 0 0 0 .53v.264C0 .5.236.264.53.264h3.174a.53.53 0 0 1 .53.53V.529A.528.528 0 0 0 3.703 0z" opacity=".5"/>
    </g>

      </g>
</svg>
