<?xml version='1.0' encoding='UTF-8' standalone='no'?>
<svg xmlns:cc='http://creativecommons.org/ns#' xmlns:dc='http://purl.org/dc/elements/1.1/' height='16' id='svg744' xmlns:rdf='http://www.w3.org/1999/02/22-rdf-syntax-ns#' xmlns:svg='http://www.w3.org/2000/svg' version='1.0' width='16.002262' xmlns='http://www.w3.org/2000/svg'>
  <metadata id='metadata750'>
    <rdf:RDF>
      <cc:Work rdf:about=''>
        <dc:format>image/svg+xml</dc:format>
        <dc:type rdf:resource='http://purl.org/dc/dcmitype/StillImage'/>
      </cc:Work>
    </rdf:RDF>
  </metadata>
  <defs id='defs748'/>
  <g id='layer1' transform='translate(-48.997739,74)'>
    <path d='m 55.5,-73.5 a 2,2 0 0 0 -2,2 v 6.188 a 2.927,2.927 0 0 0 -1,-0.188 3,3 0 1 0 3,3 v -7 h 6 v 4.188 a 2.927,2.927 0 0 0 -1,-0.188 3,3 0 1 0 3,3 v -9 a 2,2 0 0 0 -2,-2 z' id='path98' style='fill:#faa41a;stroke:#1a1818;stroke-opacity:0.58800001'/>
    
  </g>
</svg>
