<?xml version='1.0' encoding='UTF-8' standalone='no'?>
<svg xmlns:cc='http://creativecommons.org/ns#' xmlns:dc='http://purl.org/dc/elements/1.1/' height='16' id='svg744' xmlns:rdf='http://www.w3.org/1999/02/22-rdf-syntax-ns#' xmlns:svg='http://www.w3.org/2000/svg' version='1.0' width='16' xmlns='http://www.w3.org/2000/svg'>
  <metadata id='metadata750'>
    <rdf:RDF>
      <cc:Work rdf:about=''>
        <dc:format>image/svg+xml</dc:format>
        <dc:type rdf:resource='http://purl.org/dc/dcmitype/StillImage'/>
      </cc:Work>
    </rdf:RDF>
  </metadata>
  <defs id='defs748'/>
  <g id='layer1' transform='translate(-49,2954)'>
    <rect height='12' id='rect568' ry='2' style='fill:#ffce51;stroke:#a27100;stroke-width:2;stroke-linecap:round' width='12' x='51' y='-2952'/>
    <path d='m 56,-2950 v 4 l 4,2.31' id='path570' style='fill:none;stroke:#33302f;stroke-width:2'/>
    <rect height='1' id='rect572' ry='0' style='fill:#a27100' width='6' x='54' y='-2954'/>
    <rect height='1' id='rect574' ry='0' style='fill:#a27100' width='6' x='54' y='-2939'/>
    
  </g>
</svg>
