<?xml version='1.0' encoding='UTF-8' standalone='no'?>
<svg xmlns:cc='http://creativecommons.org/ns#' xmlns:dc='http://purl.org/dc/elements/1.1/' height='16' id='svg744' xmlns:rdf='http://www.w3.org/1999/02/22-rdf-syntax-ns#' xmlns:svg='http://www.w3.org/2000/svg' version='1.0' width='16' xmlns='http://www.w3.org/2000/svg'>
  <metadata id='metadata750'>
    <rdf:RDF>
      <cc:Work rdf:about=''>
        <dc:format>image/svg+xml</dc:format>
        <dc:type rdf:resource='http://purl.org/dc/dcmitype/StillImage'/>
      </cc:Work>
    </rdf:RDF>
  </metadata>
  <defs id='defs748'/>
  <g id='layer1' transform='translate(-49,3254)'>
    <path d='m 50,-3241 c 0,0.554 0.446,1 1,1 h 12 c 0.554,0 1,-0.446 1,-1 v -10 H 50 Z' id='path728' style='fill:#48b9c7'/>
    <path d='m 50,-3251 v 10 c 0,0.554 0.446,1 1,1 h 12 c 0.554,0 1,-0.446 1,-1 v -10 z m 1,1 h 12 v 9 H 51 Z' id='path730' style='fill:#000000;fill-opacity:0.50199998'/>
    <path d='m 64,-3251 c 0,-0.554 -0.446,-1 -1,-1 H 51 c -0.554,0 -1,0.446 -1,1 v 1 h 14 z' id='path732' style='fill:#323232'/>
    
  </g>
</svg>
