<?xml version='1.0' encoding='UTF-8' standalone='no'?>
<svg xmlns:cc='http://creativecommons.org/ns#' xmlns:dc='http://purl.org/dc/elements/1.1/' height='16' id='svg744' xmlns:rdf='http://www.w3.org/1999/02/22-rdf-syntax-ns#' xmlns:svg='http://www.w3.org/2000/svg' version='1.0' width='16' xmlns='http://www.w3.org/2000/svg'>
  <metadata id='metadata750'>
    <rdf:RDF>
      <cc:Work rdf:about=''>
        <dc:format>image/svg+xml</dc:format>
        <dc:type rdf:resource='http://purl.org/dc/dcmitype/StillImage'/>
      </cc:Work>
    </rdf:RDF>
  </metadata>
  <defs id='defs748'/>
  <g id='layer1' transform='translate(-49,-266)'>
    <path d='m 52,267 h 3 l 2,2 h 5 c 1.108,0 2,0.892 2,2 v 8 c 0,1.108 -0.892,2 -2,2 H 52 c -1.108,0 -2,-0.892 -2,-2 v -10 c 0,-1.108 0.892,-2 2,-2 z' id='path85' style='fill:#48b9c7'/>
    <path d='m 52,267.5 h 2.793 l 2,2 H 62 c 0.831,0 1.5,0.669 1.5,1.5 v 8 c 0,0.831 -0.669,1.5 -1.5,1.5 H 52 c -0.831,0 -1.5,-0.669 -1.5,-1.5 v -10 c 0,-0.831 0.669,-1.5 1.5,-1.5 z' id='path87' style='fill:none;stroke:#000000;stroke-linecap:round;stroke-opacity:0.50199998'/>
    
  </g>
</svg>
