{
    "Kaguya-sama S02": {
        "addPaused": null,
        "affectedFeeds": [
            "https://nyaa.si/?page=rss&q=720p&c=0_0&f=0&u=HorribleSubs"
        ],
        "assignedCategory": "Anime",
        "createSubfolder": null,
        "enabled": true,
        "episodeFilter": "",
        "ignoreDays": 0,
        "lastMatch": "27 Jun 2020 16:06:19 +0000",
        "mustContain": "Kaguya-sama wa Kokurasetai S2",
        "mustNotContain": "",
        "previouslyMatchedEpisodes": [
        ],
        "savePath": "",
        "smartFilter": false,
        "useRegex": false
    },
    "Princess Connect! Re Dive": {
        "addPaused": null,
        "affectedFeeds": [
            "https://nyaa.si/?page=rss&q=720p&c=0_0&f=0&u=HorribleSubs"
        ],
        "assignedCategory": "Anime",
        "createSubfolder": null,
        "enabled": true,
        "episodeFilter": "",
        "ignoreDays": 0,
        "lastMatch": "29 Jun 2020 16:35:01 +0000",
        "mustContain": "Princess Connect! Re Dive",
        "mustNotContain": "",
        "previouslyMatchedEpisodes": [
        ],
        "savePath": "",
        "smartFilter": false,
        "useRegex": false
    }
}
